{
    "endpoint": "https://localhost:44383/api",
    "bearer": "eyJhbGciOiJIUzI1NiIsInR5cCI6IkpXVCJ9.eyJodHRwOi8vc2NoZW1hcy54bWxzb2FwLm9yZy93cy8yMDA1LzA1L2lkZW50aXR5L2NsYWltcy9uYW1lIjoiS09US2VubnkiLCJodHRwOi8vc2NoZW1hcy54bWxzb2FwLm9yZy93cy8yMDA1LzA1L2lkZW50aXR5L2NsYWltcy9zaWQiOiIzIiwiZXhwIjoxNjg2NjE1Nzg1LCJpc3MiOiJsb2NhbGhvc3QiLCJhdWQiOiJsb2NhbGhvc3QifQ.nqbKEO5ET-AMfnvdZM4UAaha9amVKZmAK7wfvsqhDzE"
}